…
## Part 2: What is mean total number of steps taken per day?

1. Total number of steps taken per day.

```r
act1<-act%>%
  group_by(date)%>%
  summarise(sum=sum(steps))
act1
```

```
## # A tibble: 61 x 2
##    date         sum
##    <date>     <int>
##  1 2012-10-01    NA
##  2 2012-10-02   126
##  3 2012-10-03 11352
##  4 2012-10-04 12116
##  5 2012-10-05 13294
##  6 2012-10-06 15420
##  7 2012-10-07 11015
##  8 2012-10-08    NA
##  9 2012-10-09 12811
## 10 2012-10-10  9900
## # ... with 51 more rows
```
…
3. Mean and median of the total number fo steps taken per day.

```r
act2<-act%>%
  group_by(date)%>%
  summarise(mean=mean(steps),median=median(steps))
act2
```

```
## # A tibble: 61 x 3
##    date         mean median
##    <date>      <dbl>  <dbl>
##  1 2012-10-01 NA         NA
##  2 2012-10-02  0.438      0
##  3 2012-10-03 39.4        0
##  4 2012-10-04 42.1        0
##  5 2012-10-05 46.2        0
##  6 2012-10-06 53.5        0
##  7 2012-10-07 38.2        0
##  8 2012-10-08 NA         NA
##  9 2012-10-09 44.5        0
## 10 2012-10-10 34.4        0
## # ... with 51 more rows
```
…
4. Median and mean

```r
act8<-act6%>%
  group_by(date)%>%
  summarise(mean=mean(steps),median=median(steps))
act8
```

```
## # A tibble: 61 x 3
##    date         mean median
##    <date>      <dbl>  <dbl>
##  1 2012-10-01 36.9     33.5
##  2 2012-10-02  0.438    0  
##  3 2012-10-03 39.4      0  
##  4 2012-10-04 42.1      0  
##  5 2012-10-05 46.2      0  
##  6 2012-10-06 53.5      0  
##  7 2012-10-07 38.2      0  
##  8 2012-10-08 36.9     33.5
##  9 2012-10-09 44.5      0  
## 10 2012-10-10 34.4      0  
## # ... with 51 more rows
```
…
